{
  "schemaVersion": "1.2",
  "description": "Provision and Run Adwords Scorer",
  "parameters": {
    "imageType": {
      "type": "String",
      "default": "c4.large",
      "description": "(Required) Specify the image type of the instance to build",
      "maxChars": 20
    }
  },
  "runtimeConfig": {
    "aws:runShellScript": {
      "properties": [
        {
          "id": "0.aws:runShellScript",
          "runCommand": [
			"rm -rf productcategorisation",
			"git clone http://mashfaq@bitbucket.org/cahootsy2/productcategorisation.git",
			"rm -rf productcategorisation/data/*.csv",
            "cd productcategorisation",
			"python provision.py --image {{ imageType }}"
          ],
          "timeoutSeconds":"3600"
        }
      ]
    }
  }
}